{
    "name": "Tests_Core",
    "references": [
        "GUID:cf7585b4271b2b54ea76c45315b00bda",
        "GUID:a6d54c55a038aed4f8db0c924f4c4dde",
        "GUID:f84e6676b3735144aabe85c0acf21b51"
    ],
    "optionalUnityReferences": [
        "TestAssemblies"
    ],
    "includePlatforms": [
        "Editor"
    ],
    "excludePlatforms": [],
    "allowUnsafeCode": false,
    "overrideReferences": false,
    "precompiledReferences": [],
    "autoReferenced": true,
    "defineConstraints": [],
    "versionDefines": []
}